<svg width="221" height="181" viewBox="0 0 221 181" fill="none" xmlns="http://www.w3.org/2000/svg">
<path fill-rule="evenodd" clip-rule="evenodd" d="M53.7402 56.4371C56.8352 57.7485 59.756 58.1818 61.0251 57.659C64.2072 56.348 62.8212 44.2836 59.6008 39.9032C56.3804 35.5229 42.9588 35.3026 43.6166 44.7858C43.845 48.0772 45.6285 50.7925 47.9932 52.8803L46.726 70.2895L57.3051 68.8027L53.7402 56.4371Z" fill="#B28B67"/>
<path fill-rule="evenodd" clip-rule="evenodd" d="M56.7779 37.113C56.5154 37.0031 55.9657 36.7707 55.6934 36.6967C55.6289 36.6788 55.1609 36.4364 55.15 36.4418C54.843 36.5953 53.9662 37.1259 53.9346 37.4824C53.9259 37.5103 53.9171 37.5365 53.9083 37.5597C53.8097 37.8175 53.7228 38.0797 53.642 38.3441C53.4646 38.9246 53.3254 39.5247 53.1955 40.119C52.9423 41.2765 52.7463 42.452 52.5792 43.6261C52.409 44.8213 52.2909 46.0229 52.1379 47.2205C51.9178 48.9438 51.5651 50.6442 51.348 52.3664C51.2094 53.4661 51.2001 54.5603 51.4288 55.6399C51.4314 55.6529 51.4337 55.6658 51.4367 55.6789C51.438 55.6843 51.4394 55.6896 51.4406 55.695C51.477 55.8607 51.519 56.0262 51.567 56.1913C51.6086 56.3323 51.6504 56.474 51.6935 56.6153C51.99 55.7412 52.1776 54.7976 52.3908 53.8971C52.4116 53.8089 52.4309 53.7204 52.4494 53.6316C52.5325 53.4434 52.6179 53.2561 52.7046 53.0693C53.2514 51.8913 53.8015 50.7168 54.3168 49.5233C55.2437 47.3767 56.1535 45.1898 57.3267 43.1733C57.6731 42.5779 58.0305 41.9892 58.371 41.3901C58.5648 41.0492 58.7517 40.704 58.9303 40.3543C59.058 40.1042 59.6407 39.2132 59.3223 38.7718C59.1594 38.546 57.459 37.3982 56.7779 37.113Z" fill="#2C2C2C"/>
<path fill-rule="evenodd" clip-rule="evenodd" d="M55.7755 36.7258C56.0222 36.7715 55.839 36.2995 55.5866 36.1598C54.4173 35.5127 50.3342 35.792 46.9184 37.0134C44.6301 37.8316 42.0596 39.4289 40.3962 41.2517C38.8967 42.895 38.0462 45.3109 37.7511 47.571C37.4414 49.9442 37.6805 52.3394 38.3613 54.6327C38.5108 55.1364 38.7456 55.6035 38.9089 56.0942C39.0927 56.6468 39.2228 57.1854 39.486 57.7111C39.6471 58.033 39.8867 58.337 40.0315 58.6632C40.1966 59.0353 40.1796 59.4035 40.1543 59.8092C40.1131 60.4704 40.0401 61.1347 39.8946 61.7811C39.6761 62.7518 39.375 63.6745 39.2446 64.6683C39.0711 65.9906 38.1793 70.3395 39.4151 71.317L59.9202 68.4352C59.2068 67.1058 57.425 65.6736 56.9003 64.2168C56.5913 63.3587 56.232 61.4402 56.2028 61.3728C55.2951 58.267 54.18 56.8796 53.5377 56.4095C52.8954 55.9394 52.119 55.8762 52.0132 55.405C51.5759 53.4561 52.0979 51.4564 52.4168 49.5354C52.7969 47.2458 52.9854 44.9276 53.3878 42.6425C53.566 41.6306 54.4944 36.4885 55.7755 36.7258Z" fill="#8991DC"/>
<path fill-rule="evenodd" clip-rule="evenodd" d="M49.1267 47.1957C48.4914 43.8821 48.4745 42.5551 48.9045 40.0042L48.4277 40.0712C47.8102 41.1464 47.5962 44.1995 48.7474 47.249L49.1267 47.1957ZM39.7606 48.3517C39.649 48.1608 39.5347 47.9653 39.4167 47.7649L39.134 47.9525C40.5797 51.3002 42.1207 53.8248 46.432 55.5169L46.7122 55.2567C42.5628 53.1434 41.4754 51.2839 39.7606 48.3517ZM45.0791 44.2579L45.0792 44.2581C46.2733 48.5889 47.0306 51.3352 50.9446 55.9588L50.5974 56.1202C46.4273 51.9082 45.3313 48.1461 44.5045 43.4657L44.8393 43.391C44.9218 43.6873 45.0014 43.976 45.0791 44.2579ZM43.3933 58.1758L43.1357 58.5949C44.7358 58.7003 45.9527 59.6898 47.3477 60.8243C48.8238 62.0245 50.4992 63.3869 53.039 64.0359L53.4469 63.7044C50.6356 62.7163 49.2269 61.5395 47.997 60.5121C46.7236 59.4484 45.6418 58.5447 43.3933 58.1758Z" fill="black" fill-opacity="0.2"/>
<path fill-rule="evenodd" clip-rule="evenodd" d="M77.2603 162.642C77.2603 162.642 83.2986 142.838 87.1629 134.68C91.574 125.368 95.7101 117.393 97.4509 114.584C101.602 107.885 110.414 114.885 108.99 118.765C105.756 127.573 82.3866 164.974 82.3866 164.974L77.2603 162.642Z" fill="#B28B67"/>
<path fill-rule="evenodd" clip-rule="evenodd" d="M102.735 171.827C102.298 166.252 101.487 146.923 102.299 137.93C103.225 127.666 104.349 118.741 105.006 115.491C106.572 107.74 117.042 110.907 117.036 115.028C117.024 124.385 108.6 168.805 108.16 171.609C107.721 174.414 103.009 175.331 102.735 171.827Z" fill="#B28B67"/>
<path fill-rule="evenodd" clip-rule="evenodd" d="M77.627 155.31L95.2216 113.82C99.4366 107.071 111.254 115.193 109.817 119.108C106.554 127.995 89.9568 156.768 88.9845 159.416L77.627 155.31Z" fill="#1F28CF"/>
<path fill-rule="evenodd" clip-rule="evenodd" d="M118.042 117.991C118.042 129.762 112.85 157.433 112.846 160.025L100.27 159.603C100.27 159.603 103.567 123.517 103.051 123.272C102.277 122.905 71.3009 127.533 62.0109 127.882C48.6145 128.386 43.0727 120.218 42.623 104.718L68.5723 104.718C68.5723 104.718 101.856 108.666 112.323 110.21C116.804 110.871 118.042 114.748 118.042 117.991Z" fill="#2B44FF"/>
<path fill-rule="evenodd" clip-rule="evenodd" d="M78.0428 161.279C77.5414 160.901 76.8154 160.983 76.467 161.507C75.9487 162.286 75.29 163.364 75.1199 164.043C74.8286 165.206 74.659 167.534 74.659 167.534C76.0143 167.87 99.0191 173.58 99.0191 173.58C99.0191 173.58 100.751 170.691 98.7679 169.934C96.7845 169.177 95.4816 168.64 95.4816 168.64L85.4921 160.864C85.2537 160.678 84.9086 160.725 84.7284 160.969L83.6174 162.469C83.6174 162.469 81.5031 162.878 80.3191 162.584C79.6517 162.419 78.7247 161.793 78.0428 161.279Z" fill="#E4E4E4"/>
<path fill-rule="evenodd" clip-rule="evenodd" d="M103.145 164.507C102.558 164.236 101.863 164.517 101.649 165.169C101.33 166.139 100.947 167.467 100.947 168.238C100.947 169.559 101.355 172.092 101.355 172.092C102.774 172.092 126.862 172.092 126.862 172.092C126.862 172.092 127.856 168.544 125.714 168.261C123.572 167.978 122.155 167.75 122.155 167.75L110.387 162.087C110.106 161.952 109.778 162.094 109.66 162.402L108.935 164.3C108.935 164.3 106.952 165.299 105.712 165.299C105.013 165.299 103.945 164.876 103.145 164.507Z" fill="#E4E4E4"/>
<path d="M101.952 173.6C101.952 172.767 102.633 172.092 103.473 172.092H123.56C124.4 172.092 125.081 172.767 125.081 173.6C125.081 174.433 124.4 175.109 123.56 175.109H103.473C102.633 175.109 101.952 174.433 101.952 173.6Z" fill="#2F3676"/>
<path d="M36.5896 113.115C36.5896 110.143 39.0316 107.735 42.0439 107.735H88.4535C91.4658 107.735 93.9078 110.143 93.9078 113.115V133.88H38.7713C37.5664 133.88 36.5896 132.916 36.5896 131.728V113.115Z" fill="#2F3676"/>
<path fill-rule="evenodd" clip-rule="evenodd" d="M88.8799 107.735H89.0709C91.6952 107.735 93.9338 109.623 94.3609 112.198L103.964 170.081H99.223" fill="#2F3676"/>
<path fill-rule="evenodd" clip-rule="evenodd" d="M101.952 180.137C106.395 180.137 109.997 176.31 109.997 171.589C109.997 166.868 106.395 163.042 101.952 163.042C97.5094 163.042 93.9077 166.868 93.9077 171.589C93.9077 176.31 97.5094 180.137 101.952 180.137Z" fill="#191847"/>
<path fill-rule="evenodd" clip-rule="evenodd" d="M76.813 145.444C76.813 164.049 61.5057 179.131 42.6231 179.131C23.7406 179.131 8.43335 164.049 8.43335 145.444C8.43335 126.839 23.7406 111.757 42.6231 111.757C61.5057 111.757 76.813 126.839 76.813 145.444ZM70.5147 145.444C70.5147 160.621 58.0272 172.925 42.623 172.925C27.2189 172.925 14.7313 160.621 14.7313 145.444C14.7313 130.266 27.2189 117.962 42.623 117.962C58.0272 117.962 70.5147 130.266 70.5147 145.444Z" fill="#191847"/>
<path d="M40.6121 115.779H43.6288V174.103H40.6121V115.779Z" fill="#191847"/>
<path d="M61.2585 123.891C61.6796 123.471 62.3624 123.471 62.7835 123.891L63.7765 124.879C64.1976 125.298 64.1976 125.978 63.7765 126.397L23.7544 166.237C23.3333 166.656 22.6505 166.656 22.2294 166.237L21.2364 165.248C20.8153 164.829 20.8153 164.149 21.2364 163.73L61.2585 123.891Z" fill="#191847"/>
<path d="M70.717 142.93C71.3068 142.93 71.7849 143.34 71.7849 143.846V145.031C71.7849 145.537 71.3068 145.947 70.717 145.947H14.5291C13.9393 145.947 13.4611 145.537 13.4611 145.031V143.846C13.4611 143.34 13.9393 142.93 14.5291 142.93H70.717Z" fill="#191847"/>
<path d="M63.7766 163.73C64.1977 164.149 64.1977 164.829 63.7766 165.248L62.7835 166.237C62.3624 166.656 61.6797 166.656 61.2586 166.237L21.2364 126.397C20.8153 125.978 20.8153 125.298 21.2364 124.879L22.2295 123.891C22.6506 123.471 23.3333 123.471 23.7544 123.891L63.7766 163.73Z" fill="#191847"/>
<path fill-rule="evenodd" clip-rule="evenodd" d="M83.7907 84.4613L100.862 79.6523C104.073 77.2354 107.092 75.4803 109.92 74.387C110.74 74.2474 112.091 74.3612 110.368 76.2536C108.646 78.1459 106.919 80.2142 107.387 81.029C107.856 81.8438 109.625 81.2676 110.112 82.5538C110.436 83.4112 107.513 83.9688 101.342 84.2264L88.0041 91.7842L83.7907 84.4613Z" fill="#997659"/>
<path fill-rule="evenodd" clip-rule="evenodd" d="M29.6827 96.155C29.6827 96.155 23.0985 131.316 22.1734 134.106C21.7211 135.47 17.5919 140.002 14.6598 142.671C13.4828 143.743 14.1814 144.804 14.7156 145.037C19.0599 146.931 21.2848 143.657 24.5209 141.567C28.0664 139.278 28.443 144.282 31.2611 142.52C30.0486 140.591 27.3517 137.062 28.018 134.402C28.4622 132.629 39.34 94.8345 39.34 94.8345L29.6827 96.155Z" fill="#B28B67"/>
<path fill-rule="evenodd" clip-rule="evenodd" d="M51.8383 61.966L59.4661 61.405C63.6831 77.9055 75.3091 87.0682 97.5038 80.2938L103.553 101.456C82.7215 107.167 62.9275 101.327 55.8971 78.9706C54.0772 73.1834 52.431 67.1258 51.8383 61.966Z" fill="#AFB9C5"/>
<path fill-rule="evenodd" clip-rule="evenodd" d="M40.8273 111.391L75.65 106.497C70.4065 92.535 62.3751 80.9087 59.6198 61.3043L47.7709 60.3004C41.2942 74.1165 39.5195 90.2558 40.8273 111.391Z" fill="#C5CFD6"/>
<path fill-rule="evenodd" clip-rule="evenodd" d="M47.0457 60.4023C32.2808 77.9877 24.2277 101.045 22.8863 129.573L46.0414 126.318C43.3732 102.831 43.6284 81.7313 50.3334 62.5239L47.7956 60.2969L47.0457 60.4023Z" fill="#C5CFD6"/>
<path fill-rule="evenodd" clip-rule="evenodd" d="M40.8273 111.39L51.0107 109.959C45.4836 96.9991 44.9846 66.0613 44.9846 66.0613C39.3289 78.9177 39.5266 91.6494 40.8273 111.39Z" fill="black" fill-opacity="0.1"/>
<path fill-rule="evenodd" clip-rule="evenodd" d="M47.0457 60.4023C32.2808 77.9877 24.2277 101.045 22.8863 129.573L46.0414 126.318C43.3732 102.831 43.6284 81.7313 50.3334 62.5239L47.7956 60.2969L47.0457 60.4023Z" fill="#C5CFD6"/>
<path fill-rule="evenodd" clip-rule="evenodd" d="M163.676 21.4533C161.026 23.5235 158.317 24.6991 156.956 24.5221C153.542 24.0782 151.757 12.0496 153.733 6.97843C155.709 1.90729 168.616 -1.78206 170.437 7.5612C171.068 10.804 170.049 13.8924 168.306 16.5244L174.038 33.0357L163.435 34.3376L163.676 21.4533Z" fill="#B28B67"/>
<path fill-rule="evenodd" clip-rule="evenodd" d="M158.382 7.04999C159.973 7.65331 161.205 9.05334 162.715 10.9181C163.001 10.7636 163.32 10.6588 163.662 10.6168C165.126 10.4371 166.458 11.4744 166.637 12.9337C166.728 13.6746 166.505 14.3818 166.071 14.9221C166.79 15.7097 167.588 16.5269 168.49 17.3604C171.232 15.2273 172.571 8.84687 169.634 4.92344C167.971 2.70239 166.219 1.73558 164.006 1.39342C162.186 0.88391 160.378 1.02324 158.913 1.64252C155.969 2.26218 153.424 3.49266 152.737 4.12214C153.082 6.92977 153.73 7.69578 158.382 7.04999Z" fill="#191847"/>
<path fill-rule="evenodd" clip-rule="evenodd" d="M161.693 9.69017C161.693 9.69017 162.123 18.2197 159.51 18.5404C156.898 18.8612 154.479 17.4802 153.332 17.6209C152.497 17.7235 152.811 18.7429 153.46 19.4477C153.995 20.0292 156.296 20.3705 156.418 21.3589C156.539 22.3474 154.687 21.7985 154.759 22.3848C154.878 23.3545 154.793 25.2156 156.481 25.0083C158.19 24.7985 163.013 23.5762 163.542 20.9452C164.071 18.3142 163.3 10.1588 163.3 10.1588L161.693 9.69017Z" fill="#191847"/>
<path fill-rule="evenodd" clip-rule="evenodd" d="M181.394 70.528L165.345 126.24L157.797 168.07H150.221L157.783 70.528H181.394Z" fill="#997659"/>
<path fill-rule="evenodd" clip-rule="evenodd" d="M188.448 70.5281C187.318 99.5063 187.763 115.312 188.017 117.945C188.27 120.577 189.706 138.21 199.494 169.075H191.539C178.576 139.465 174.051 121.833 172.564 117.945C171.078 114.057 166.687 98.251 160.276 70.5281H188.448Z" fill="#B28B67"/>
<path fill-rule="evenodd" clip-rule="evenodd" d="M181.394 70.528C177.05 89.6369 169.538 120.14 158.857 162.036H147.327C146.475 119.033 150.098 90.7303 156.372 70.528H181.394Z" fill="#69A1AC"/>
<path fill-rule="evenodd" clip-rule="evenodd" d="M188.677 70.5281C187.552 99.5515 190.466 128.145 199.494 163.042H187.371C174.18 133.828 164.726 105.376 158.265 70.5281H188.677Z" fill="#89C5CC"/>
<path fill-rule="evenodd" clip-rule="evenodd" d="M200.5 174.821L200.107 168.578C200.086 168.244 199.757 168.015 199.426 168.08C195.651 168.816 190.533 167.064 190.533 167.064C185.406 170.649 178.069 172.34 175.241 172.888C174.618 173.009 174.222 173.633 174.395 174.238L174.934 176.114H190.533H199.633L200.5 174.821Z" fill="#191847"/>
<path fill-rule="evenodd" clip-rule="evenodd" d="M159.271 174.821L158.878 168.578C158.857 168.244 158.529 168.015 158.197 168.08C154.423 168.816 149.305 167.064 149.305 167.064C144.178 170.649 136.841 172.34 134.013 172.888C133.389 173.009 132.993 173.633 133.167 174.238L133.706 176.114H149.305H158.404L159.271 174.821Z" fill="#191847"/>
<path fill-rule="evenodd" clip-rule="evenodd" d="M143.914 68.1218L131.087 80.1678C127.391 81.6653 124.355 83.3365 121.978 85.1815C121.44 85.8061 120.845 87.0103 123.334 86.5093C125.822 86.0082 128.462 85.5928 128.914 86.4044C129.366 87.216 127.971 88.4242 128.813 89.4906C129.374 90.2016 131.345 88.004 134.724 82.8979L147.972 75.4158L143.914 68.1218Z" fill="#B28B67"/>
<path fill-rule="evenodd" clip-rule="evenodd" d="M198.067 61.834C198.067 61.834 205.61 86.8107 207.226 89.27C208.016 90.4722 213.178 93.7857 216.701 95.6084C218.116 96.34 217.716 97.5476 217.26 97.9112C213.555 100.869 210.557 98.2775 206.89 97.0946C202.873 95.7986 203.805 100.736 200.627 99.7625C201.298 97.5819 202.99 93.4701 201.657 91.0701C200.769 89.4701 188.839 63.0038 188.839 63.0038L198.067 61.834Z" fill="#B28B67"/>
<path fill-rule="evenodd" clip-rule="evenodd" d="M167.088 26.4381L163.187 26.254C150.511 40.2002 147.569 64.3639 131.719 78.919L136.535 83.5726C166.22 76.1516 170.18 46.6324 167.088 26.4381Z" fill="#E87613"/>
<path fill-rule="evenodd" clip-rule="evenodd" d="M189.618 72.2504C189.618 72.2504 166.64 75.0716 155.814 76.4009C154.27 76.5906 154.288 74.3315 154.373 73.1822C155.361 59.918 163.707 44.7256 161.444 26.2946L171.007 23.5733C180.659 35.5125 185.403 51.0887 189.618 72.2504Z" fill="#DDE3E9"/>
<path fill-rule="evenodd" clip-rule="evenodd" d="M173.258 32.7323C173.258 32.7323 184.981 38.3827 187.758 31.5351C190.535 24.6875 188.814 21.3163 184.863 20.6239C180.912 19.9315 177.809 22.738 171.741 23.4831C165.673 24.2282 173.258 32.7323 173.258 32.7323Z" fill="#FF9B21"/>
<path fill-rule="evenodd" clip-rule="evenodd" d="M198.264 80.5764L167.836 84.3125C160.124 70.1968 167.811 24.2047 167.811 24.2047L171.922 23.4609C180.728 35.5424 194.21 59.3316 198.264 80.5764Z" fill="#FF9B21"/>
<path fill-rule="evenodd" clip-rule="evenodd" d="M171.744 23.4828C171.744 23.4828 203.433 45.9671 207.352 88.8484L200.103 89.7385C188.639 74.4909 169.186 26.3782 169.186 26.3782L171.744 23.4828Z" fill="#FF9B21"/>
<path fill-rule="evenodd" clip-rule="evenodd" d="M185.431 47.2833C185.431 47.2833 188.513 73.341 184.568 82.2582L194.729 81.0105L185.431 47.2833Z" fill="black" fill-opacity="0.1"/>
<path fill-rule="evenodd" clip-rule="evenodd" d="M171.744 23.4828C171.744 23.4828 203.433 45.9671 207.352 88.8484L200.103 89.7385C188.639 74.4909 169.186 26.3782 169.186 26.3782L171.744 23.4828Z" fill="#FF9B21"/>
<path fill-rule="evenodd" clip-rule="evenodd" d="M108.489 62.4833C122.095 62.4833 133.126 51.6782 133.126 38.3494C133.126 25.0205 122.095 14.2154 108.489 14.2154C94.8823 14.2154 83.8521 25.0205 83.8521 38.3494C83.8521 51.6782 94.8823 62.4833 108.489 62.4833Z" fill="#EAE1A6" fill-opacity="0.8"/>
</svg>
